{
	"info": {
		"_postman_id": "70b659f1-8659-4db9-96cc-377121241e0f",
		"name": "platinum-challenge",
		"schema": "https://schema.getpostman.com/json/collection/v2.1.0/collection.json"
	},
	"item": [
		{
			"name": "register user",
			"request": {
				"method": "POST",
				"header": [],
				"body": {
					"mode": "raw",
					"raw": "{\r\n    \"firstName\": \"Lintang\",\r\n    \"lastName\": \"MZ\",\r\n    \"username\": \"lintangmz\",\r\n    \"email\": \"lintangmz@email.com\",\r\n    \"password\": \"12345678\"\r\n}",
					"options": {
						"raw": {
							"language": "json"
						}
					}
				},
				"url": {
					"raw": "localhost:3000/api/register",
					"host": [
						"localhost"
					],
					"port": "3000",
					"path": [
						"api",
						"register"
					]
				}
			},
			"response": []
		},
		{
			"name": "login",
			"request": {
				"method": "POST",
				"header": [],
				"body": {
					"mode": "raw",
					"raw": "{\r\n    \"username\": \"lintangmz\",\r\n    \"password\": \"12345678\"\r\n}",
					"options": {
						"raw": {
							"language": "json"
						}
					}
				},
				"url": {
					"raw": "localhost:3000/api/login",
					"host": [
						"localhost"
					],
					"port": "3000",
					"path": [
						"api",
						"login"
					]
				}
			},
			"response": []
		},
		{
			"name": "authorization",
			"request": {
				"method": "GET",
				"header": [
					{
						"key": "Authorization",
						"value": "eyJhbGciOiJIUzI1NiIsInR5cCI6IkpXVCJ9.eyJpZCI6MSwidXNlcm5hbWUiOiJsaW50YW5nbXoiLCJpYXQiOjE2NTg0MTAzMTB9.S5RJjTGbYXIKWJZszXTkVAHqphnNA2mZSPsqP50_k_c",
						"type": "default"
					}
				],
				"url": {
					"raw": "localhost:3000/api/profile",
					"host": [
						"localhost"
					],
					"port": "3000",
					"path": [
						"api",
						"profile"
					]
				}
			},
			"response": []
		},
		{
			"name": "list all user",
			"request": {
				"method": "GET",
				"header": [],
				"url": {
					"raw": "localhost:3000/api/users",
					"host": [
						"localhost"
					],
					"port": "3000",
					"path": [
						"api",
						"users"
					]
				}
			},
			"response": []
		},
		{
			"name": "list user by id",
			"request": {
				"method": "GET",
				"header": [],
				"url": {
					"raw": "localhost:3000/api/user/1",
					"host": [
						"localhost"
					],
					"port": "3000",
					"path": [
						"api",
						"user",
						"1"
					]
				}
			},
			"response": []
		},
		{
			"name": "update user by id",
			"request": {
				"method": "PUT",
				"header": [],
				"body": {
					"mode": "raw",
					"raw": "{\r\n    \"firstName\": \"Lintang\",\r\n    \"lastName\": \"MZ\",\r\n    \"userName\": \"lintangmz\",\r\n    \"email\": \"lintangmz@email.com\",\r\n    \"password\": \"123456\"\r\n}",
					"options": {
						"raw": {
							"language": "json"
						}
					}
				},
				"url": {
					"raw": "localhost:3000/api/user/1",
					"host": [
						"localhost"
					],
					"port": "3000",
					"path": [
						"api",
						"user",
						"1"
					]
				}
			},
			"response": []
		},
		{
			"name": "delete user by id",
			"request": {
				"method": "DELETE",
				"header": [],
				"url": {
					"raw": "localhost:3000/api/user/1",
					"host": [
						"localhost"
					],
					"port": "3000",
					"path": [
						"api",
						"user",
						"1"
					]
				}
			},
			"response": []
		},
		{
			"name": "add item",
			"request": {
				"method": "POST",
				"header": [],
				"body": {
					"mode": "raw",
					"raw": "{\r\n    \"name\": \"Xiaomi X\",\r\n    \"description\": \"All Good\",\r\n    \"price\": \"5000000\",\r\n    \"qty\": 5\r\n}",
					"options": {
						"raw": {
							"language": "json"
						}
					}
				},
				"url": {
					"raw": "localhost:3000/api/item",
					"host": [
						"localhost"
					],
					"port": "3000",
					"path": [
						"api",
						"item"
					]
				}
			},
			"response": []
		},
		{
			"name": "list all item",
			"request": {
				"method": "GET",
				"header": [],
				"url": {
					"raw": "localhost:3000/api/items",
					"host": [
						"localhost"
					],
					"port": "3000",
					"path": [
						"api",
						"items"
					]
				}
			},
			"response": []
		},
		{
			"name": "list item by id",
			"request": {
				"method": "GET",
				"header": [],
				"url": {
					"raw": "localhost:3000/api/item/1",
					"host": [
						"localhost"
					],
					"port": "3000",
					"path": [
						"api",
						"item",
						"1"
					]
				}
			},
			"response": []
		},
		{
			"name": "update item by id",
			"request": {
				"method": "PUT",
				"header": [],
				"body": {
					"mode": "raw",
					"raw": "{\r\n    \"name\": \"Iphone X\",\r\n    \"description\": \"All Huleh Good\",\r\n    \"price\": \"5000000\",\r\n    \"qty\": 10,\r\n    \"orderId\": 1\r\n}",
					"options": {
						"raw": {
							"language": "json"
						}
					}
				},
				"url": {
					"raw": "localhost:3000/api/item/1",
					"host": [
						"localhost"
					],
					"port": "3000",
					"path": [
						"api",
						"item",
						"1"
					]
				}
			},
			"response": []
		},
		{
			"name": "delete item",
			"request": {
				"method": "DELETE",
				"header": [],
				"url": {
					"raw": "localhost:3000/api/item/1",
					"host": [
						"localhost"
					],
					"port": "3000",
					"path": [
						"api",
						"item",
						"1"
					]
				}
			},
			"response": []
		},
		{
			"name": "add order",
			"request": {
				"method": "POST",
				"header": [],
				"body": {
					"mode": "raw",
					"raw": "{\r\n    \"dateOrder\": \"2022-07-12\",\r\n    \"userId\": 1,\r\n    \"status\": \"Belum Bayar\"\r\n}",
					"options": {
						"raw": {
							"language": "json"
						}
					}
				},
				"url": {
					"raw": "localhost:3000/api/order",
					"host": [
						"localhost"
					],
					"port": "3000",
					"path": [
						"api",
						"order"
					]
				}
			},
			"response": []
		},
		{
			"name": "list all order",
			"request": {
				"method": "GET",
				"header": [],
				"url": {
					"raw": "localhost:3000/api/orders",
					"host": [
						"localhost"
					],
					"port": "3000",
					"path": [
						"api",
						"orders"
					]
				}
			},
			"response": []
		},
		{
			"name": "list order by id",
			"request": {
				"method": "GET",
				"header": [],
				"url": {
					"raw": "localhost:3000/api/order/1",
					"host": [
						"localhost"
					],
					"port": "3000",
					"path": [
						"api",
						"order",
						"1"
					]
				}
			},
			"response": []
		},
		{
			"name": "update order by id",
			"request": {
				"method": "PUT",
				"header": [],
				"body": {
					"mode": "raw",
					"raw": "{\r\n    \"tglTransaksi\": \"2022-07-12\",\r\n    \"userId\": 1,\r\n    \"status\": \"Lunas\"\r\n}",
					"options": {
						"raw": {
							"language": "json"
						}
					}
				},
				"url": {
					"raw": "localhost:3000/api/order/1",
					"host": [
						"localhost"
					],
					"port": "3000",
					"path": [
						"api",
						"order",
						"1"
					]
				}
			},
			"response": []
		},
		{
			"name": "delete order by id",
			"request": {
				"method": "DELETE",
				"header": [],
				"url": {
					"raw": "localhost:3000/api/order/1",
					"host": [
						"localhost"
					],
					"port": "3000",
					"path": [
						"api",
						"order",
						"1"
					]
				}
			},
			"response": []
		},
		{
			"name": "add transaction",
			"request": {
				"method": "POST",
				"header": [],
				"body": {
					"mode": "raw",
					"raw": "{\r\n    \"userId\": 1,\r\n    \"orderId\": 1,\r\n    \"itemId\": 1\r\n}",
					"options": {
						"raw": {
							"language": "json"
						}
					}
				},
				"url": {
					"raw": "localhost:3000/api/transaction/add",
					"host": [
						"localhost"
					],
					"port": "3000",
					"path": [
						"api",
						"transaction",
						"add"
					]
				}
			},
			"response": []
		},
		{
			"name": "list all transaction",
			"request": {
				"method": "GET",
				"header": [],
				"url": {
					"raw": "localhost:3000/api/transaction/showAll",
					"host": [
						"localhost"
					],
					"port": "3000",
					"path": [
						"api",
						"transaction",
						"showAll"
					]
				}
			},
			"response": []
		},
		{
			"name": "list transaction by id",
			"request": {
				"method": "GET",
				"header": [],
				"url": {
					"raw": "localhost:3000/api/transaction/showById/1",
					"host": [
						"localhost"
					],
					"port": "3000",
					"path": [
						"api",
						"transaction",
						"showById",
						"1"
					]
				}
			},
			"response": []
		}
	]
}